{
    "key": "group_5ff404944e1ed",
    "title": "Shop By Archive",
    "fields": [
        {
            "key": "field_5ff40be025aa5",
            "label": "Featured image",
            "name": "featured_image",
            "type": "image",
            "instructions": "",
            "required": 0,
            "conditional_logic": 0,
            "wrapper": {
                "width": "",
                "class": "",
                "id": ""
            },
            "return_format": "array",
            "preview_size": "medium",
            "library": "all",
            "min_width": "",
            "min_height": "",
            "min_size": "",
            "max_width": "",
            "max_height": "",
            "max_size": "",
            "mime_types": ""
        },
        {
            "key": "field_5ff404f5c1250",
            "label": "Featured icon",
            "name": "featured_icon",
            "type": "image",
            "instructions": "",
            "required": 0,
            "conditional_logic": 0,
            "wrapper": {
                "width": "",
                "class": "",
                "id": ""
            },
            "return_format": "array",
            "preview_size": "medium",
            "library": "all",
            "min_width": "",
            "min_height": "",
            "min_size": "",
            "max_width": "",
            "max_height": "",
            "max_size": "",
            "mime_types": ""
        }
    ],
    "location": [
        [
            {
                "param": "taxonomy",
                "operator": "==",
                "value": "all"
            }
        ],
        [
            {
                "param": "taxonomy",
                "operator": "==",
                "value": "pa_purpose"
            }
        ],
        [
            {
                "param": "taxonomy",
                "operator": "==",
                "value": "pa_room"
            }
        ],
        [
            {
                "param": "taxonomy",
                "operator": "==",
                "value": "pa_space"
            }
        ]
    ],
    "menu_order": 0,
    "position": "normal",
    "style": "seamless",
    "label_placement": "top",
    "instruction_placement": "label",
    "hide_on_screen": "",
    "active": true,
    "description": "",
    "modified": 1610076297
}