<svg xmlns="http://www.w3.org/2000/svg" xmlns:xlink="http://www.w3.org/1999/xlink" width="1920.267" height="533.93" viewBox="0 0 1920.267 533.93">
  <defs>
    <clipPath id="clip-path">
      <rect width="1920.267" height="533.93" fill="none"/>
    </clipPath>
  </defs>
  <g id="Repeat_Grid_4" data-name="Repeat Grid 4" opacity="0.107" clip-path="url(#clip-path)">
    <g transform="translate(0 -2084.736)">
      <path id="Union_5" data-name="Union 5" d="M121.267,43.866,60.937,0,0,43.866V533.93H121.267Z" transform="translate(0 2084.736)" fill="#f06491"/>
    </g>
    <g transform="translate(122 -2084.736)">
      <path id="Union_5-2" data-name="Union 5" d="M121.267,43.866,60.937,0,0,43.866V533.93H121.267Z" transform="translate(0 2084.736)" fill="#f06491"/>
    </g>
    <g transform="translate(244 -2084.736)">
      <path id="Union_5-3" data-name="Union 5" d="M121.267,43.866,60.937,0,0,43.866V533.93H121.267Z" transform="translate(0 2084.736)" fill="#f06491"/>
    </g>
    <g transform="translate(366 -2084.736)">
      <path id="Union_5-4" data-name="Union 5" d="M121.267,43.866,60.937,0,0,43.866V533.93H121.267Z" transform="translate(0 2084.736)" fill="#f06491"/>
    </g>
    <g transform="translate(488 -2084.736)">
      <path id="Union_5-5" data-name="Union 5" d="M121.267,43.866,60.937,0,0,43.866V533.93H121.267Z" transform="translate(0 2084.736)" fill="#f06491"/>
    </g>
    <g transform="translate(610 -2084.736)">
      <path id="Union_5-6" data-name="Union 5" d="M121.267,43.866,60.937,0,0,43.866V533.93H121.267Z" transform="translate(0 2084.736)" fill="#f06491"/>
    </g>
    <g transform="translate(732 -2084.736)">
      <path id="Union_5-7" data-name="Union 5" d="M121.267,43.866,60.937,0,0,43.866V533.93H121.267Z" transform="translate(0 2084.736)" fill="#f06491"/>
    </g>
    <g transform="translate(854 -2084.736)">
      <path id="Union_5-8" data-name="Union 5" d="M121.267,43.866,60.937,0,0,43.866V533.93H121.267Z" transform="translate(0 2084.736)" fill="#f06491"/>
    </g>
    <g transform="translate(976 -2084.736)">
      <path id="Union_5-9" data-name="Union 5" d="M121.267,43.866,60.937,0,0,43.866V533.93H121.267Z" transform="translate(0 2084.736)" fill="#f06491"/>
    </g>
    <g transform="translate(1098 -2084.736)">
      <path id="Union_5-10" data-name="Union 5" d="M121.267,43.866,60.937,0,0,43.866V533.93H121.267Z" transform="translate(0 2084.736)" fill="#f06491"/>
    </g>
    <g transform="translate(1220 -2084.736)">
      <path id="Union_5-11" data-name="Union 5" d="M121.267,43.866,60.937,0,0,43.866V533.93H121.267Z" transform="translate(0 2084.736)" fill="#f06491"/>
    </g>
    <g transform="translate(1342 -2084.736)">
      <path id="Union_5-12" data-name="Union 5" d="M121.267,43.866,60.937,0,0,43.866V533.93H121.267Z" transform="translate(0 2084.736)" fill="#f06491"/>
    </g>
    <g transform="translate(1464 -2084.736)">
      <path id="Union_5-13" data-name="Union 5" d="M121.267,43.866,60.937,0,0,43.866V533.93H121.267Z" transform="translate(0 2084.736)" fill="#f06491"/>
    </g>
    <g transform="translate(1586 -2084.736)">
      <path id="Union_5-14" data-name="Union 5" d="M121.267,43.866,60.937,0,0,43.866V533.93H121.267Z" transform="translate(0 2084.736)" fill="#f06491"/>
    </g>
    <g transform="translate(1708 -2084.736)">
      <path id="Union_5-15" data-name="Union 5" d="M121.267,43.866,60.937,0,0,43.866V533.93H121.267Z" transform="translate(0 2084.736)" fill="#f06491"/>
    </g>
    <g transform="translate(1830 -2084.736)">
      <path id="Union_5-16" data-name="Union 5" d="M121.267,43.866,60.937,0,0,43.866V533.93H121.267Z" transform="translate(0 2084.736)" fill="#f06491"/>
    </g>
  </g>
</svg>
